"id","type_name","rent_per_day","size","image","createdAt","updatedAt"
16,"Brio",200000,"Small","https://upload.wikimedia.org/wikipedia/commons/0/07/2020_Honda_Brio_Satya_E_1.2_DD1_%2820211006%29.jpg","2022-04-22 20:44:06.335+07","2022-04-22 20:44:06.335+07"
17,"Avanza",300000,"Medium","https://awsimages.detik.net.id/community/media/visual/2022/01/14/honda-brio-satya_169.png?w=1200","2022-04-22 21:18:55.499+07","2022-04-22 21:18:55.499+07"
18,"CRETA",500000,"Large","https://assets.pikiran-rakyat.com/crop/0x0:0x0/x/photo/2021/11/11/1751479324.jpg","2022-04-22 21:19:11.189+07","2022-04-22 21:19:11.189+07"
